…
Calculate \# of unique values and type of columms

``` r
col_stats <- df %>% 
  map(function(col) 
    tibble(length = length(unique(col)), type = class(col))
  ) %>%
  reduce(bind_rows) %>% 
  mutate(col = colnames(df))

col_stats
```

    ## # A tibble: 62 x 3
    ##    length type    col              
    ##     <int> <chr>   <chr>            
    ##  1  24646 numeric person_id        
    ##  2      2 factor  any_visit_pre_ed 
    ##  3     24 numeric num_visit_cens_ed
    ##  4      2 factor  any_hosp_pre_ed  
    ##  5      2 factor  any_out_pre_ed   
    ##  6      2 factor  any_on_pre_ed    
    ##  7      2 factor  any_off_pre_ed   
    ##  8   1353 numeric num_edcnnp_pre_ed
    ##  9    287 numeric num_edcnpa_pre_ed
    ## 10   2049 numeric num_epct_pre_ed  
    ## # … with 52 more rows
…
    ## Warning: `as_tibble.matrix()` requires a matrix with column names or a `.name_repair` argument. Using compatibility `.name_repair`.
    ## This warning is displayed once per session.

``` r
feat_importance
```

    ## # A tibble: 44 x 2
    ##    importance feature             
    ##         <dbl> <chr>               
    ##  1     0.210  num_visit_cens_ed   
    ##  2     0.133  charg_tot_pre_ed    
    ##  3     0.119  ed_charg_tot_pre_ed 
    ##  4     0.0976 num_epct_pre_ed     
    ##  5     0.0867 num_ne_pre_ed       
    ##  6     0.0849 num_edcnpa_pre_ed   
    ##  7     0.0791 num_edcnnp_pre_ed   
    ##  8     0.0340 any_chron_pre_ed_Yes
    ##  9     0.0337 num_unclas_pre_ed   
    ## 10     0.0252 any_hosp_pre_ed_Yes 
    ## # … with 34 more rows
…
